{
  "forge_marker": 1,
  "defaults": {
    "textures": {
      "texture": "fallenblocks:dev/dev"
    },
    "model": "minecraft:button",
    "transform": "forge:default-block"
  },
  "variants": {
    "facing": {
      "up": {},
      "down": {
        "x": 180
      },
      "east": {
        "x": 90,
        "y": 90
      },
      "west": {
        "x": 90,
        "y": 270
      },
      "north": {
        "x": 90
      },
      "south": {
        "x": 90,
        "y": 180
      }
    },
    "powered": {
      "true": {
        "model": "minecraft:button_pressed"
      },
      "false": {}
    },

    "inventory": [{}]
  }
}