{
  "forge_marker": 1,
  "defaults": {
    "textures": {
      "texture": "fallenblocks:dev/dev"
    },
    "model": "minecraft:pressure_plate_up",
    "transform": "forge:default-block"
  },
  "variants": {
    "powered": {
      "true": {
        "model": "minecraft:pressure_plate_down"
      },
      "false": {}
    },
    "inventory": [{}]
  }
}
