{
  "forge_marker": 1,
  "defaults": {
    "textures": {
      "all": "fallenblocks:blocks/dev/dev"
    },
    "model": "minecraft:cube_all",
    "transform": "forge:default-block"
  },
  "variants": {
    "normal": [{}],
    "inventory": [{}]
  }
}